Project 1
…
seizurejoined %>% filter(period == 4 & trt == 1) %>% summarise(mean_rate = mean(seizure.rate, na.rm = T))

## # A tibble: 1 x 1
##   mean_rate
##       <dbl>
## 1      6.63

# mean_rate
#1   6.62963

seizurejoined %>% select(age) %>% arrange(age)

## # A tibble: 236 x 1
##      age
##    <dbl>
##  1    18
##  2    18
##  3    18
##  4    18
##  5    18
##  6    18
##  7    18
##  8    18
##  9    19
## 10    19
## # … with 226 more rows
…
